\relax 
\providecommand\hyper@newdestlabel[2]{}
\providecommand\HyperFirstAtBeginDocument{\AtBeginDocument}
\HyperFirstAtBeginDocument{\ifx\hyper@anchor\@undefined
\global\let\oldcontentsline\contentsline
\gdef\contentsline#1#2#3#4{\oldcontentsline{#1}{#2}{#3}}
\global\let\oldnewlabel\newlabel
\gdef\newlabel#1#2{\newlabelxx{#1}#2}
\gdef\newlabelxx#1#2#3#4#5#6{\oldnewlabel{#1}{{#2}{#3}}}
\AtEndDocument{\ifx\hyper@anchor\@undefined
\let\contentsline\oldcontentsline
\let\newlabel\oldnewlabel
\fi}
\fi}
\global\let\hyper@last\relax 
\gdef\HyperFirstAtBeginDocument#1{#1}
\providecommand\HyField@AuxAddToFields[1]{}
\providecommand\HyField@AuxAddToCoFields[2]{}
\@writefile{toc}{\beamer@endinputifotherversion {3.33pt}}
\@writefile{nav}{\beamer@endinputifotherversion {3.33pt}}
\@writefile{nav}{\headcommand {\slideentry {0}{0}{1}{1/1}{}{0}}}
\@writefile{nav}{\headcommand {\beamer@framepages {1}{1}}}
\@writefile{nav}{\headcommand {\slideentry {0}{0}{2}{2/2}{}{0}}}
\@writefile{nav}{\headcommand {\beamer@framepages {2}{2}}}
\@writefile{toc}{\beamer@sectionintoc {1}{{Introduction to Modern Cosmology}}{3}{0}{1}}
\@writefile{nav}{\headcommand {\sectionentry {1}{{Introduction to Modern Cosmology}}{3}{{Introduction to Modern Cosmology}}{0}}}
\@writefile{nav}{\headcommand {\beamer@sectionpages {1}{2}}}
\@writefile{nav}{\headcommand {\beamer@subsectionpages {1}{2}}}
\@writefile{nav}{\headcommand {\slideentry {1}{0}{3}{3/3}{}{0}}}
\@writefile{nav}{\headcommand {\beamer@framepages {3}{3}}}
\citation{carrol6}
\@writefile{toc}{\beamer@subsectionintoc {1}{1}{General Theory of Relativity}{4}{0}{1}}
\@writefile{nav}{\headcommand {\beamer@subsectionentry {0}{1}{1}{4}{General Theory of Relativity}}\headcommand {\beamer@subsectionpages {3}{3}}}
\@writefile{nav}{\headcommand {\slideentry {1}{1}{1}{4/4}{General Theory of Relativity}{0}}}
\@writefile{nav}{\headcommand {\beamer@framepages {4}{4}}}
\citation{liddle1}
\@writefile{snm}{\beamer@slide {flrw}{5}}
\newlabel{flrw}{{2}{5}{General Theory of Relativity}{Doc-Start}{}}
\@writefile{nav}{\headcommand {\slideentry {1}{1}{2}{5/5}{General Theory of Relativity}{0}}}
\@writefile{nav}{\headcommand {\beamer@framepages {5}{5}}}
\@writefile{toc}{\beamer@subsectionintoc {1}{2}{Red shift}{6}{0}{1}}
\@writefile{nav}{\headcommand {\beamer@subsectionentry {0}{1}{2}{6}{Red shift}}\headcommand {\beamer@subsectionpages {4}{5}}}
\@writefile{nav}{\headcommand {\slideentry {1}{2}{1}{6/6}{Red shift}{0}}}
\@writefile{nav}{\headcommand {\beamer@framepages {6}{6}}}
\citation{hub}
\@writefile{toc}{\beamer@subsectionintoc {1}{3}{Hubble's Law}{7}{0}{1}}
\@writefile{nav}{\headcommand {\beamer@subsectionentry {0}{1}{3}{7}{Hubble's Law}}\headcommand {\beamer@subsectionpages {6}{6}}}
\@writefile{nav}{\headcommand {\slideentry {1}{3}{1}{7/7}{Hubble's Law}{0}}}
\@writefile{nav}{\headcommand {\beamer@framepages {7}{7}}}
\@writefile{toc}{\beamer@subsectionintoc {1}{4}{Friedmann Cosmology}{8}{0}{1}}
\@writefile{nav}{\headcommand {\beamer@subsectionentry {0}{1}{4}{8}{Friedmann Cosmology}}\headcommand {\beamer@subsectionpages {7}{7}}}
\@writefile{snm}{\beamer@slide {flrweq}{8}}
\newlabel{flrweq}{{6}{8}{Friedmann Cosmology}{Doc-Start}{}}
\@writefile{snm}{\beamer@slide {acceq}{8}}
\newlabel{acceq}{{7}{8}{Friedmann Cosmology}{Doc-Start}{}}
\@writefile{nav}{\headcommand {\slideentry {1}{4}{1}{8/8}{Friedmann Cosmology}{0}}}
\@writefile{nav}{\headcommand {\beamer@framepages {8}{8}}}
\@writefile{nav}{\headcommand {\slideentry {1}{4}{2}{9/9}{Friedmann Cosmology}{0}}}
\@writefile{nav}{\headcommand {\beamer@framepages {9}{9}}}
\@writefile{nav}{\headcommand {\slideentry {1}{4}{3}{10/10}{Friedmann Cosmology}{0}}}
\@writefile{nav}{\headcommand {\beamer@framepages {10}{10}}}
\@writefile{nav}{\headcommand {\slideentry {1}{4}{4}{11/11}{Friedmann Cosmology}{0}}}
\@writefile{nav}{\headcommand {\beamer@framepages {11}{11}}}
\@writefile{nav}{\headcommand {\slideentry {1}{4}{5}{12/12}{Friedmann Cosmology}{0}}}
\@writefile{nav}{\headcommand {\beamer@framepages {12}{12}}}
\newlabel{fig:matterrad}{{2}{13}{Friedmann Cosmology}{Doc-Start}{}}
\@writefile{snm}{\beamer@slide {fig:matterrad}{13}}
\@writefile{nav}{\headcommand {\slideentry {1}{4}{6}{13/13}{Friedmann Cosmology}{0}}}
\@writefile{nav}{\headcommand {\beamer@framepages {13}{13}}}
\citation{wmap}
\citation{komatsu}
\@writefile{nav}{\headcommand {\slideentry {1}{4}{7}{14/14}{Friedmann Cosmology}{0}}}
\@writefile{nav}{\headcommand {\beamer@framepages {14}{14}}}
\@writefile{toc}{\beamer@sectionintoc {2}{Standard $\Lambda $CDM Model}{15}{0}{2}}
\@writefile{nav}{\headcommand {\sectionentry {2}{Standard $\Lambda $CDM Model}{15}{Standard $\Lambda $CDM Model}{0}}}
\@writefile{nav}{\headcommand {\beamer@sectionpages {3}{14}}}
\@writefile{nav}{\headcommand {\beamer@subsectionpages {8}{14}}}
\@writefile{nav}{\headcommand {\slideentry {2}{0}{8}{15/15}{}{0}}}
\@writefile{nav}{\headcommand {\beamer@framepages {15}{15}}}
\citation{wmap}
\@writefile{nav}{\headcommand {\slideentry {2}{0}{9}{16/16}{}{0}}}
\@writefile{nav}{\headcommand {\beamer@framepages {16}{16}}}
\citation{ian}
\citation{luca}
\@writefile{toc}{\beamer@subsubsectionintoc {2}{0}{1}{Dark Matter and Dark Energy}{17}{0}{2}}
\@writefile{nav}{\headcommand {\beamer@subsubsectionentry {0}{2}{0}{1}{17}{Dark Matter and Dark Energy}}}
\@writefile{nav}{\headcommand {\slideentry {2}{0}{10}{17/17}{}{0}}}
\@writefile{nav}{\headcommand {\beamer@framepages {17}{17}}}
\@writefile{toc}{\beamer@sectionintoc {3}{Analysis of $\Lambda $CDM Model}{18}{0}{3}}
\@writefile{nav}{\headcommand {\sectionentry {3}{Analysis of $\Lambda $CDM Model}{18}{Analysis of $\Lambda $CDM Model}{0}}}
\@writefile{nav}{\headcommand {\beamer@sectionpages {15}{17}}}
\@writefile{nav}{\headcommand {\beamer@subsectionpages {15}{17}}}
\@writefile{toc}{\beamer@subsectionintoc {3}{1}{Scale Factor}{18}{0}{3}}
\@writefile{nav}{\headcommand {\beamer@subsectionentry {0}{3}{1}{18}{Scale Factor}}\headcommand {\beamer@subsectionpages {18}{17}}}
\@writefile{snm}{\beamer@slide {sf}{18}}
\newlabel{sf}{{16}{18}{Scale Factor}{Doc-Start}{}}
\@writefile{nav}{\headcommand {\slideentry {3}{1}{1}{18/18}{Scale Factor}{0}}}
\@writefile{nav}{\headcommand {\beamer@framepages {18}{18}}}
\newlabel{fig:Scalefactor}{{3}{19}{Scale Factor}{Doc-Start}{}}
\@writefile{snm}{\beamer@slide {fig:Scalefactor}{19}}
\@writefile{nav}{\headcommand {\slideentry {3}{1}{2}{19/19}{Scale Factor}{0}}}
\@writefile{nav}{\headcommand {\beamer@framepages {19}{19}}}
\@writefile{toc}{\beamer@subsectionintoc {3}{2}{Hubble Parameter}{20}{0}{3}}
\@writefile{nav}{\headcommand {\beamer@subsectionentry {0}{3}{2}{20}{Hubble Parameter}}\headcommand {\beamer@subsectionpages {18}{19}}}
\newlabel{fig:Hubbleparameter}{{4}{20}{Hubble Parameter}{Doc-Start}{}}
\@writefile{snm}{\beamer@slide {fig:Hubbleparameter}{20}}
\@writefile{nav}{\headcommand {\slideentry {3}{2}{1}{20/20}{Hubble Parameter}{0}}}
\@writefile{nav}{\headcommand {\beamer@framepages {20}{20}}}
\citation{stern}
\@writefile{nav}{\headcommand {\slideentry {3}{2}{2}{21/21}{Hubble Parameter}{0}}}
\@writefile{nav}{\headcommand {\beamer@framepages {21}{21}}}
\newlabel{Hubblered-shift}{{5}{22}{Hubble Parameter}{Doc-Start}{}}
\@writefile{snm}{\beamer@slide {Hubblered-shift}{22}}
\@writefile{nav}{\headcommand {\slideentry {3}{2}{3}{22/22}{Hubble Parameter}{0}}}
\@writefile{nav}{\headcommand {\beamer@framepages {22}{22}}}
\@writefile{toc}{\beamer@subsectionintoc {3}{3}{Deceleration Parameter}{23}{0}{3}}
\@writefile{nav}{\headcommand {\beamer@subsectionentry {0}{3}{3}{23}{Deceleration Parameter}}\headcommand {\beamer@subsectionpages {20}{22}}}
\@writefile{snm}{\beamer@slide {q}{23}}
\newlabel{q}{{19}{23}{Deceleration Parameter}{Doc-Start}{}}
\newlabel{decepa}{{6}{23}{Deceleration Parameter}{Doc-Start}{}}
\@writefile{snm}{\beamer@slide {decepa}{23}}
\@writefile{nav}{\headcommand {\slideentry {3}{3}{1}{23/23}{Deceleration Parameter}{0}}}
\@writefile{nav}{\headcommand {\beamer@framepages {23}{23}}}
\newlabel{decz}{{7}{24}{Deceleration Parameter}{Doc-Start}{}}
\@writefile{snm}{\beamer@slide {decz}{24}}
\@writefile{nav}{\headcommand {\slideentry {3}{3}{2}{24/24}{Deceleration Parameter}{0}}}
\@writefile{nav}{\headcommand {\beamer@framepages {24}{24}}}
\citation{alam}
\citation{komatsu}
\@writefile{nav}{\headcommand {\slideentry {3}{3}{3}{25/25}{Deceleration Parameter}{0}}}
\@writefile{nav}{\headcommand {\beamer@framepages {25}{25}}}
\citation{thanu}
\citation{peebles}
\@writefile{toc}{\beamer@subsectionintoc {3}{4}{Distance Moduli vs Redshift}{26}{0}{3}}
\@writefile{nav}{\headcommand {\beamer@subsectionentry {0}{3}{4}{26}{Distance Moduli vs Redshift}}\headcommand {\beamer@subsectionpages {23}{25}}}
\@writefile{nav}{\headcommand {\slideentry {3}{4}{1}{26/26}{Distance Moduli vs Redshift}{0}}}
\@writefile{nav}{\headcommand {\beamer@framepages {26}{26}}}
\newlabel{fig:307plot}{{8}{27}{Distance Moduli vs Redshift}{Doc-Start}{}}
\@writefile{snm}{\beamer@slide {fig:307plot}{27}}
\@writefile{nav}{\headcommand {\slideentry {3}{4}{2}{27/27}{Distance Moduli vs Redshift}{0}}}
\@writefile{nav}{\headcommand {\beamer@framepages {27}{27}}}
\@writefile{nav}{\headcommand {\slideentry {3}{4}{3}{28/28}{Distance Moduli vs Redshift}{0}}}
\@writefile{nav}{\headcommand {\beamer@framepages {28}{28}}}
\@writefile{nav}{\headcommand {\slideentry {3}{4}{4}{29/29}{Distance Moduli vs Redshift}{0}}}
\@writefile{nav}{\headcommand {\beamer@framepages {29}{29}}}
\bibcite{liddle1}{\hyperlink {beamerbibliddle1}{1}}
\bibcite{luca}{\hyperlink {beamerbibluca}{2}}
\bibcite{ian}{\hyperlink {beamerbibian}{3}}
\bibcite{hawley}{\hyperlink {beamerbibhawley}{4}}
\bibcite{carrol6}{\hyperlink {beamerbibcarrol6}{5}}
\bibcite{stern}{\hyperlink {beamerbibstern}{6}}
\bibcite{copland}{\hyperlink {beamerbibcopland}{7}}
\bibcite{komatsu}{\hyperlink {beamerbibkomatsu}{8}}
\bibcite{alam}{\hyperlink {beamerbibalam}{9}}
\bibcite{hub}{\hyperlink {beamerbibhub}{10}}
\bibcite{frieman}{\hyperlink {beamerbibfrieman}{11}}
\bibcite{wmap}{\hyperlink {beamerbibwmap}{12}}
\bibcite{peebles}{\hyperlink {beamerbibpeebles}{13}}
\bibcite{perlm}{\hyperlink {beamerbibperlm}{14}}
\bibcite{smcarrol2}{\hyperlink {beamerbibsmcarrol2}{15}}
\bibcite{thanu}{\hyperlink {beamerbibthanu}{16}}
\@writefile{nav}{\headcommand {\slideentry {3}{4}{5}{30/30}{Distance Moduli vs Redshift}{0}}}
\@writefile{nav}{\headcommand {\beamer@framepages {30}{30}}}
\@writefile{nav}{\headcommand {\slideentry {3}{4}{5}{30/31}{Distance Moduli vs Redshift}{0}}}
\@writefile{nav}{\headcommand {\beamer@framepages {30}{31}}}
\@writefile{nav}{\headcommand {\slideentry {3}{4}{6}{32/32}{Distance Moduli vs Redshift}{0}}}
\@writefile{nav}{\headcommand {\beamer@framepages {32}{32}}}
\@writefile{nav}{\headcommand {\beamer@partpages {1}{32}}}
\@writefile{nav}{\headcommand {\beamer@subsectionpages {26}{32}}}
\@writefile{nav}{\headcommand {\beamer@sectionpages {18}{32}}}
\@writefile{nav}{\headcommand {\beamer@documentpages {32}}}
\@writefile{nav}{\headcommand {\def \inserttotalframenumber {32}}}
